{"steps":[
    {
          "element": "#rightSidenav",
          "intro":"The layering side bar lets you manage your layers. You can duplicate, show/hide, delete and even rearrange your layers on the way you want."
    },
     {
          "element": "#listWithHandle",
          "intro":"Manage your layers by right-clicking to view available options. You can also rearrange the position of it by dragging it up / down."
    }
]}