{"steps":[
    {
          "element": "#tutText",
          "intro":"Text tool lets you customize text on your Tshirt workspace."
    },
     {
          "element": "#addfont",
          "intro":"Set your desired Font, text-allignment, size and text-style here."
    },
     {
          "element": "#addtxt",
          "intro":"Type your personalized text, click the add text button and click on your desired workspace location."
    },
    {
          "element": "#penwidth",
          "intro":"Change the stroke width of the certain object."
    },
    {
          "element": "#strokecol",
          "intro":"Change the border color of the selected object."
    },
    {
          "element": "#fillcol",
          "intro":"Change the fill color of the selected object."
    }
]}